module github.com/gethinode/hinode-test

go 1.19

require (
	github.com/gethinode/mod-bootstrap v1.1.1 // indirect
	github.com/gethinode/mod-flexsearch v1.4.0 // indirect
	github.com/gethinode/mod-fontawesome v1.2.5 // indirect
	github.com/gethinode/mod-katex v1.0.2 // indirect
	github.com/gethinode/mod-leaflet v0.3.4 // indirect
	github.com/myrthos/mod-mgallery v0.1.9 // indirect
)
